{
	"list": [
		{
			"title" : "Coding",
			"url" : null,
			"tags" : ["coding"],
			"instructors": null,
			"description": "",
			"image_url": null,
			"provider": "LearnLabs",
			"type": "category"
		},
		{
			"title" : "Design",
			"url" : null,
			"tags" : ["design"],
			"instructors": null,
			"description": "",
			"image_url": null,
			"provider": "LearnLabs",
			"type": "category"
		},
		{
			"title" : "UX",
			"url" : null,
			"tags" : ["ux"],
			"instructors": null,
			"description": "",
			"image_url": null,
			"provider": "LearnLabs",
			"type": "category"
		},
		{
			"title" : "Business",
			"url" : null,
			"tags" : ["business"],
			"instructors": null,
			"description": "",
			"image_url": null,
			"provider": "LearnLabs",
			"type": "category"
		},
		{
			"title" : "Health",
			"url" : null,
			"tags" : ["health"],
			"instructors": null,
			"description": "",
			"image_url": null,
			"provider": "LearnLabs",
			"type": "category"
		},
		{
			"title" : "Taxes",
			"url" : null,
			"tags" : ["taxes"],
			"instructors": null,
			"description": "",
			"image_url": null,
			"provider": "LearnLabs",
			"type": "category"
		},
		{
			"title" : "Sciences",
			"url" : null,
			"tags" : ["science"],
			"instructors": null,
			"description": "",
			"image_url": null,
			"provider": "LearnLabs",
			"type": "category"
		},
		{
			"title" : "Languages",
			"url" : null,
			"tags" : ["languages"],
			"instructors": null,
			"description": "",
			"image_url": null,
			"provider": "LearnLabs",
			"type": "category"
		},
		{
			"title" : "Crafts",
			"url" : null,
			"tags" : ["crafts"],
			"instructors": null,
			"description": "",
			"image_url": null,
			"provider": "LearnLabs",
			"type": "category"
		},
		{
			"title" : "Music",
			"url" : null,
			"tags" : ["music"],
			"instructors": null,
			"description": "",
			"image_url": null,
			"provider": "LearnLabs",
			"type": "category"
		},
		{
			"title" : "Nutrition",
			"url" : null,
			"tags" : ["nutrition"],
			"instructors": null,
			"description": "",
			"image_url": null,
			"provider": "LearnLabs",
			"type": "category"
		},
		{
			"title" : "Cooking",
			"url" : null,
			"tags" : ["cooking"],
			"instructors": null,
			"description": "",
			"image_url": null,
			"provider": "LearnLabs",
			"type": "category"
		},
		{
			"title" : "Entrepreneurship",
			"url" : null,
			"tags" : ["entrepreneurship"],
			"instructors": null,
			"description": "",
			"image_url": null,
			"provider": "LearnLabs",
			"type": "category"
		},
		{
			"title" : "Management",
			"url" : null,
			"tags" : ["management"],
			"instructors": null,
			"description": "",
			"image_url": null,
			"provider": "LearnLabs",
			"type": "category"
		},
		{
			"title" : "Culture",
			"url" : null,
			"tags" : ["culture"],
			"instructors": null,
			"description": "",
			"image_url": null,
			"provider": "LearnLabs",
			"type": "category"
		},
		{
			"title" : "Art",
			"url" : null,
			"tags" : ["art"],
			"instructors": null,
			"description": "",
			"image_url": null,
			"provider": "LearnLabs",
			"type": "category"
		},
		{
			"title" : "Drawing",
			"url" : null,
			"tags" : ["drawing"],
			"instructors": null,
			"description": "",
			"image_url": null,
			"provider": "LearnLabs",
			"type": "category"
		},
		{
			"title" : "Painting",
			"url" : null,
			"tags" : ["painting"],
			"instructors": null,
			"description": "",
			"image_url": null,
			"provider": "LearnLabs",
			"type": "category"
		},
		{
			"title" : "Illustration",
			"url" : null,
			"tags" : ["illustration"],
			"instructors": null,
			"description": "",
			"image_url": null,
			"provider": "LearnLabs",
			"type": "category"
		},
		{
			"title" : "Game design",
			"url" : null,
			"tags" : ["games", "design", "game design"],
			"instructors": null,
			"description": "",
			"image_url": null,
			"provider": "LearnLabs",
			"type": "category"
		},
		{
			"title" : "Fitness",
			"url" : null,
			"tags" : ["fitness"],
			"instructors": null,
			"description": "",
			"image_url": null,
			"provider": "LearnLabs",
			"type": "category"
		},
		{
			"title" : "Sports",
			"url" : null,
			"tags" : ["sports"],
			"instructors": null,
			"description": "",
			"image_url": null,
			"provider": "LearnLabs",
			"type": "category"
		},
		{
			"title" : "Marketing",
			"url" : null,
			"tags" : ["marketing"],
			"instructors": null,
			"description": "",
			"image_url": null,
			"provider": "LearnLabs",
			"type": "category"
		},
		{
			"title" : "Product Management",
			"url" : null,
			"tags" : ["product management"],
			"instructors": null,
			"description": "",
			"image_url": null,
			"provider": "LearnLabs",
			"type": "category"
		},
		{
			"title" : "Product Design",
			"url" : null,
			"tags" : ["product design", "design"],
			"instructors": null,
			"description": "",
			"image_url": null,
			"provider": "LearnLabs",
			"type": "category"
		},
		{
			"title" : "3D Printing",
			"url" : null,
			"tags" : ["3D printing", "product design"],
			"instructors": null,
			"description": "",
			"image_url": null,
			"provider": "LearnLabs",
			"type": "category"
		},	
		{
			"title" : "Organizational Management",
			"url" : null,
			"tags" : ["organizational management", "management"],
			"instructors": null,
			"description": "",
			"image_url": null,
			"provider": "LearnLabs",
			"type": "category"
		}	
	]
}

